// Jest Snapshot v1, https://goo.gl/fbAQLP

exports[`renders details about the search query and a clear search button, when a search query is provided 1`] = `
<div
  className="document-stats"
>
  <div
    className="num-results"
  >
    <div
      className="message"
    >
      3 documents matching "needle"
    </div>
    <button
      onClick={[Function]}
    >
      clear search
    </button>
  </div>
  <div>
    Total size: 
    1KB
  </div>
</div>
`;

exports[`renders no clear button or query info, when no search query is provided 1`] = `
<div
  className="document-stats"
>
  <div
    className="num-results"
  >
    <div
      className="message"
    >
      3 documents
    </div>
  </div>
  <div>
    Total size: 
    1KB
  </div>
</div>
`;
